Cremades - Práctica de Investigación II
…
svm_base_Train_data_result_test

## # A tibble: 1 × 3
##   .metric  .estimate model                    
##   <chr>        <dbl> <chr>                    
## 1 accuracy     0.783 SVM_Train_data_base_train

# Predicciones sobre los datos del test

svm_base_modelo_final %>% 
  tune::collect_predictions()

## # A tibble: 83 × 5
##    .pred_class id                .row gender .config             
##    <fct>       <chr>            <int> <fct>  <chr>               
##  1 female      train/test split     1 female Preprocessor1_Model1
##  2 female      train/test split     2 female Preprocessor1_Model1
##  3 female      train/test split     3 female Preprocessor1_Model1
##  4 female      train/test split    10 female Preprocessor1_Model1
##  5 male        train/test split    12 female Preprocessor1_Model1
##  6 female      train/test split    24 female Preprocessor1_Model1
##  7 female      train/test split    41 female Preprocessor1_Model1
##  8 female      train/test split    45 female Preprocessor1_Model1
##  9 female      train/test split    46 female Preprocessor1_Model1
## 10 male        train/test split    52 female Preprocessor1_Model1
## # ℹ 73 more rows
…
